<svg width="345" height="50" viewBox="0 0 345 50" fill="none" xmlns="http://www.w3.org/2000/svg">
<path d="M70.8785 20.1398C69.0492 20.1398 66.9782 20.485 64.6656 21.1753V40.5905H55.6052V13.1504H63.6301L64.1479 15.7391C65.77 14.6691 67.4268 13.8924 69.1181 13.4092C70.8439 12.8915 72.2935 12.6326 73.4672 12.6326H75.797C78.144 12.6326 80.0252 13.3402 81.4403 14.7554C82.8554 16.1705 83.5631 18.0516 83.5631 20.3987V40.5905H74.5026V21.9519C74.5026 21.4342 74.3301 21.0028 73.9849 20.6576C73.6397 20.3124 73.2083 20.1398 72.6905 20.1398H70.8785ZM106.079 38.5196C102.731 39.2098 99.7966 39.555 97.2771 39.555H95.465C93.1178 39.555 91.2368 38.8474 89.8217 37.4323C88.4064 36.0172 87.699 34.136 87.699 31.789V21.4342C87.699 18.8455 88.4238 16.8263 89.8735 15.3766C91.3575 13.8924 93.3941 13.1504 95.9828 13.1504H115.139V42.1437C115.139 44.4907 114.431 46.372 113.016 47.7871C111.601 49.2022 109.72 49.9098 107.373 49.9098C101.954 49.9098 95.9136 49.5646 89.2522 48.8743V42.1437C95.8446 42.6615 100.85 42.9203 104.267 42.9203C104.784 42.9203 105.216 42.7478 105.561 42.4026C105.906 42.0574 106.079 41.626 106.079 41.1082V38.5196ZM99.8658 32.5656C102.04 32.5656 104.111 32.393 106.079 32.0478V20.1398H98.8303C97.4496 20.1398 96.7594 20.8301 96.7594 22.2108V30.7535C96.7594 31.2712 96.9319 31.7026 97.2771 32.0478C97.6221 32.393 98.0537 32.5656 98.5715 32.5656H99.8658ZM131.195 33.8599C133.024 33.8599 135.095 33.5147 137.408 32.8244V29.718H129.901C129.383 29.718 128.952 29.8905 128.606 30.2357C128.261 30.581 128.089 31.0123 128.089 31.5301V32.0478C128.089 32.5656 128.261 32.9969 128.606 33.3422C128.952 33.6874 129.383 33.8599 129.901 33.8599H131.195ZM121.617 13.6681C127.933 12.9778 133.628 12.6326 138.702 12.6326C141.049 12.6326 142.93 13.3402 144.346 14.7554C145.761 16.1705 146.468 18.0516 146.468 20.3987V40.5905H138.443L137.926 38.0018C136.303 39.0719 134.629 39.8657 132.904 40.3834C131.212 40.8666 129.78 41.1082 128.606 41.1082H126.794C124.447 41.1082 122.566 40.4006 121.151 38.9855C119.736 37.5704 119.028 35.6892 119.028 33.3422V31.0123C119.028 28.6653 119.736 26.7841 121.151 25.369C122.566 23.9539 124.447 23.2463 126.794 23.2463H137.408V21.1753C137.408 20.6576 137.235 20.2261 136.89 19.881C136.545 19.5358 136.114 19.3632 135.596 19.3632C133.352 19.3632 130.867 19.4668 128.14 19.6739C125.448 19.881 123.274 20.0363 121.617 20.1398V13.6681ZM168.976 38.5196C165.628 39.2098 162.694 39.555 160.174 39.555H158.362C156.015 39.555 154.134 38.8474 152.719 37.4323C151.304 36.0172 150.596 34.136 150.596 31.789V21.4342C150.596 18.8455 151.321 16.8263 152.771 15.3766C154.255 13.8924 156.291 13.1504 158.88 13.1504H178.036V42.1437C178.036 44.4907 177.329 46.372 175.914 47.7871C174.498 49.2022 172.617 49.9098 170.27 49.9098C164.851 49.9098 158.811 49.5646 152.149 48.8743V42.1437C158.742 42.6615 163.747 42.9203 167.164 42.9203C167.682 42.9203 168.113 42.7478 168.458 42.4026C168.803 42.0574 168.976 41.626 168.976 41.1082V38.5196ZM162.763 32.5656C164.937 32.5656 167.008 32.393 168.976 32.0478V20.1398H161.728C160.347 20.1398 159.657 20.8301 159.657 22.2108V30.7535C159.657 31.2712 159.829 31.7026 160.174 32.0478C160.519 32.393 160.951 32.5656 161.469 32.5656H162.763ZM193.833 19.1044C192.453 19.1044 191.762 19.7947 191.762 21.1753V24.0229H200.564V21.1753C200.564 19.7947 199.874 19.1044 198.493 19.1044H193.833ZM208.589 40.0728C201.927 40.763 195.887 41.1082 190.468 41.1082C188.121 41.1082 186.24 40.4006 184.825 38.9855C183.41 37.5704 182.702 35.6892 182.702 33.3422V20.9164C182.702 18.3277 183.427 16.3086 184.876 14.8589C186.361 13.3747 188.397 12.6326 190.986 12.6326H201.341C203.929 12.6326 205.948 13.3747 207.398 14.8589C208.883 16.3086 209.624 18.3277 209.624 20.9164V30.4946H191.762V32.5656C191.762 33.0833 191.935 33.5147 192.28 33.8599C192.625 34.2051 193.057 34.3776 193.574 34.3776C196.992 34.3776 201.996 34.1188 208.589 33.601V40.0728ZM232.643 12.6326C235.439 12.6326 237.597 13.6681 239.115 15.7391C240.703 14.6691 242.411 13.8924 244.24 13.4092C246.104 12.8915 247.761 12.6326 249.21 12.6326H249.728C252.077 12.6326 253.957 13.3402 255.372 14.7554C256.788 16.1705 257.494 18.0516 257.494 20.3987V40.5905H248.434V21.9519C248.434 21.4342 248.262 21.0028 247.916 20.6576C247.572 20.3124 247.139 20.1398 246.622 20.1398H246.363C244.81 20.1398 242.826 20.485 240.409 21.1753V40.5905H231.348V21.9519C231.348 21.4342 231.177 21.0028 230.831 20.6576C230.487 20.3124 230.054 20.1398 229.536 20.1398H229.277C227.724 20.1398 225.74 20.485 223.323 21.1753V40.5905H214.263V13.1504H222.288L222.806 15.7391C224.429 14.6691 226.086 13.8924 227.776 13.4092C229.503 12.8915 230.953 12.6326 232.125 12.6326H232.643ZM272.757 19.1044C271.378 19.1044 270.686 19.7947 270.686 21.1753V24.0229H279.488V21.1753C279.488 19.7947 278.798 19.1044 277.417 19.1044H272.757ZM287.513 40.0728C280.853 40.763 274.812 41.1082 269.392 41.1082C267.046 41.1082 265.165 40.4006 263.749 38.9855C262.334 37.5704 261.626 35.6892 261.626 33.3422V20.9164C261.626 18.3277 262.351 16.3086 263.8 14.8589C265.285 13.3747 267.321 12.6326 269.91 12.6326H280.264C282.853 12.6326 284.872 13.3747 286.322 14.8589C287.807 16.3086 288.548 18.3277 288.548 20.9164V30.4946H270.686V32.5656C270.686 33.0833 270.86 33.5147 271.204 33.8599C271.55 34.2051 271.981 34.3776 272.498 34.3776C275.915 34.3776 280.921 34.1188 287.513 33.601V40.0728ZM308.463 20.1398C306.632 20.1398 304.561 20.485 302.25 21.1753V40.5905H293.189V13.1504H301.214L301.732 15.7391C303.353 14.6691 305.01 13.8924 306.702 13.4092C308.427 12.8915 309.877 12.6326 311.051 12.6326H313.381C315.727 12.6326 317.608 13.3402 319.024 14.7554C320.439 16.1705 321.147 18.0516 321.147 20.3987V40.5905H312.087V21.9519C312.087 21.4342 311.913 21.0028 311.569 20.6576C311.223 20.3124 310.792 20.1398 310.275 20.1398H308.463ZM344.957 40.5905C341.608 40.9357 338.33 41.1082 335.12 41.1082C332.771 41.1082 330.891 40.4006 329.476 38.9855C328.06 37.5704 327.354 35.6892 327.354 33.3422V20.1398H324.247V13.1504H327.354L328.389 6.9375H336.414V13.1504H342.886V20.1398H336.414V32.0478C336.414 32.5656 336.586 32.9969 336.932 33.3422C337.276 33.6874 337.709 33.8599 338.226 33.8599H344.957V40.5905Z" fill="white"/>
<path d="M27.1997 47.3621C21.8585 47.2308 15.2783 47.7111 8.7293 47.173C2.49171 46.6596 0.198213 44.0569 0.0536185 37.7465C-0.0464857 33.3186 0.024699 28.8886 0.0224744 24.4586C0.0202499 19.8642 0.0402707 15.2719 0.0113517 10.6775C0.0024536 9.30159 0.149272 7.94348 0.39397 6.60316C1.13029 2.5755 3.75079 0.330508 8.27995 0.168245C13.254 -0.0117992 18.2392 0.0215446 23.2177 0.0148762C28.6367 0.00820788 34.0579 -0.0495853 39.4701 0.119345C44.8291 0.288275 47.761 3.15787 47.9167 8.55474C48.1058 15.0563 47.9679 21.569 48.0101 28.0751C48.0147 28.8886 47.7411 29.0687 46.9779 29.0665C37.8929 29.0443 28.8057 29.0375 19.7207 29.0731C18.782 29.0777 18.6685 28.6951 18.6797 27.915C18.7153 25.1254 18.7464 22.3359 18.6685 19.5486C18.6374 18.4483 18.9955 18.1904 20.0477 18.2016C25.2464 18.2527 30.4474 18.1927 35.6461 18.2505C36.7607 18.2616 37.1966 18.0171 37.1188 16.8257C37.0144 15.1919 37.061 13.5449 37.1055 11.9067C37.1277 11.0909 36.9141 10.7353 36.0156 10.7375C28.025 10.7642 20.0322 10.762 12.0416 10.7397C11.1963 10.7375 10.9004 10.9909 10.9027 11.86C10.9294 19.7353 10.9427 27.6106 10.8938 35.4835C10.8849 36.7462 11.6145 36.5639 12.3731 36.5639C23.7582 36.5617 35.1435 36.5884 46.5265 36.5283C47.9701 36.5217 48.504 36.8106 48.4127 38.3622C48.2661 40.8138 48.3104 43.2834 48.3994 45.7416C48.4463 46.9819 48.1547 47.4153 46.8067 47.3975C40.6825 47.3176 34.5518 47.3621 27.1997 47.3621Z" fill="white"/>
</svg>
