<svg viewBox="0 0 307 47" fill="none" xmlns="http://www.w3.org/2000/svg">
<path d="M36.2398 9.45911L0 30.2858V34.7704L19.9399 46.2142L39.939 34.7282V25.9785L19.9696 37.6335L11.3596 32.5494L39.939 16.0973V11.5872L36.2398 9.45911Z" fill="#08152D"/>
<path d="M0 11.6379L10.3631 5.73462L17.6851 10.0925L6.3598 16.5786L10.6416 20.3035H0V11.6379Z" fill="#08152D"/>
<path d="M14.5517 3.17535L19.9695 0L27.4905 4.42557L21.9842 7.58399L14.5517 3.17535Z" fill="#08152D"/>
<path d="M50.7115 11.8354H56.1896V35.506H50.7115V11.8354ZM72.4931 17.0429C74.7474 17.0429 76.5622 17.7192 77.9373 19.0718C79.335 20.4244 80.0339 22.4308 80.0339 25.0909V35.506H74.7587V25.9025C74.7587 24.4597 74.4431 23.3889 73.8119 22.69C73.1806 21.9687 72.2676 21.608 71.0728 21.608C69.7428 21.608 68.6832 22.025 67.8942 22.8591C67.1052 23.6707 66.7107 24.888 66.7107 26.5112V35.506H61.4355V17.3134H66.4739V19.4438C67.1728 18.6773 68.0407 18.0912 69.0777 17.6854C70.1147 17.2571 71.2532 17.0429 72.4931 17.0429ZM90.5977 17.7192H95.2642V21.777H90.733V35.506H85.4578V21.777H82.6512V17.7192H85.4578V16.9076C85.4578 14.8336 86.0665 13.188 87.2838 11.9706C88.5237 10.7533 90.2596 10.1446 92.4914 10.1446C93.2804 10.1446 94.0243 10.2348 94.7232 10.4151C95.4446 10.5729 96.042 10.8096 96.5154 11.1252L95.129 14.9464C94.5203 14.518 93.8102 14.3039 92.9986 14.3039C91.398 14.3039 90.5977 15.1831 90.5977 16.9415V17.7192ZM97.9018 10.4151H103.177V35.506H97.9018V10.4151ZM126.424 17.3134V35.506H121.419V33.3418C120.72 34.1309 119.886 34.7395 118.917 35.1679C117.947 35.5737 116.899 35.7765 115.772 35.7765C113.382 35.7765 111.489 35.089 110.091 33.7138C108.693 32.3387 107.995 30.2985 107.995 27.5933V17.3134H113.27V26.8155C113.27 29.7462 114.498 31.2115 116.956 31.2115C118.218 31.2115 119.232 30.8057 119.999 29.9941C120.765 29.16 121.149 27.9314 121.149 26.3083V17.3134H126.424ZM149.132 26.4774C149.132 26.545 149.098 27.0184 149.03 27.8976H135.268C135.516 29.0248 136.102 29.9152 137.026 30.569C137.95 31.2228 139.1 31.5496 140.475 31.5496C141.422 31.5496 142.256 31.4144 142.978 31.1439C143.721 30.8508 144.409 30.3999 145.04 29.7912L147.847 32.8346C146.134 34.7959 143.631 35.7765 140.34 35.7765C138.288 35.7765 136.474 35.382 134.896 34.593C133.318 33.7814 132.1 32.6655 131.244 31.2453C130.387 29.8251 129.959 28.2132 129.959 26.4097C129.959 24.6288 130.376 23.0282 131.21 21.608C132.066 20.1652 133.227 19.0493 134.693 18.2602C136.181 17.4487 137.838 17.0429 139.664 17.0429C141.445 17.0429 143.056 17.4261 144.499 18.1926C145.942 18.9591 147.069 20.0637 147.881 21.5065C148.715 22.9268 149.132 24.5837 149.132 26.4774ZM139.697 21.0331C138.503 21.0331 137.499 21.3712 136.688 22.0476C135.876 22.7239 135.38 23.6481 135.2 24.8204H144.161C143.981 23.6707 143.485 22.7577 142.673 22.0814C141.862 21.3825 140.87 21.0331 139.697 21.0331ZM163.701 17.0429C165.956 17.0429 167.77 17.7192 169.145 19.0718C170.543 20.4244 171.242 22.4308 171.242 25.0909V35.506H165.967V25.9025C165.967 24.4597 165.651 23.3889 165.02 22.69C164.389 21.9687 163.476 21.608 162.281 21.608C160.951 21.608 159.891 22.025 159.102 22.8591C158.313 23.6707 157.919 24.888 157.919 26.5112V35.506H152.644V17.3134H157.682V19.4438C158.381 18.6773 159.249 18.0912 160.286 17.6854C161.323 17.2571 162.461 17.0429 163.701 17.0429ZM185.014 35.7765C183.075 35.7765 181.328 35.382 179.772 34.593C178.239 33.7814 177.033 32.6655 176.154 31.2453C175.298 29.8251 174.869 28.2132 174.869 26.4097C174.869 24.6062 175.298 22.9944 176.154 21.5741C177.033 20.1539 178.239 19.0493 179.772 18.2602C181.328 17.4487 183.075 17.0429 185.014 17.0429C186.93 17.0429 188.598 17.4487 190.018 18.2602C191.461 19.0493 192.51 20.1877 193.163 21.6756L189.072 23.8736C188.125 22.2054 186.761 21.3712 184.98 21.3712C183.605 21.3712 182.466 21.8221 181.565 22.7239C180.663 23.6256 180.212 24.8542 180.212 26.4097C180.212 27.9652 180.663 29.1938 181.565 30.0956C182.466 30.9973 183.605 31.4482 184.98 31.4482C186.783 31.4482 188.147 30.6141 189.072 28.9459L193.163 31.1777C192.51 32.6205 191.461 33.7476 190.018 34.5592C188.598 35.3708 186.93 35.7765 185.014 35.7765ZM213.79 26.4774C213.79 26.545 213.756 27.0184 213.689 27.8976H199.926C200.174 29.0248 200.76 29.9152 201.684 30.569C202.608 31.2228 203.758 31.5496 205.133 31.5496C206.08 31.5496 206.914 31.4144 207.636 31.1439C208.38 30.8508 209.067 30.3999 209.698 29.7912L212.505 32.8346C210.792 34.7959 208.289 35.7765 204.998 35.7765C202.947 35.7765 201.132 35.382 199.554 34.593C197.976 33.7814 196.758 32.6655 195.902 31.2453C195.045 29.8251 194.617 28.2132 194.617 26.4097C194.617 24.6288 195.034 23.0282 195.868 21.608C196.725 20.1652 197.886 19.0493 199.351 18.2602C200.839 17.4487 202.496 17.0429 204.322 17.0429C206.103 17.0429 207.715 17.4261 209.157 18.1926C210.6 18.9591 211.727 20.0637 212.539 21.5065C213.373 22.9268 213.79 24.5837 213.79 26.4774ZM204.356 21.0331C203.161 21.0331 202.158 21.3712 201.346 22.0476C200.534 22.7239 200.038 23.6481 199.858 24.8204H208.819C208.639 23.6707 208.143 22.7577 207.331 22.0814C206.52 21.3825 205.528 21.0331 204.356 21.0331ZM229.002 35.7089C226.658 35.7089 224.539 35.1904 222.645 34.1534C220.774 33.1164 219.297 31.6849 218.215 29.8589C217.156 28.0103 216.626 25.9476 216.626 23.6707C216.626 21.3938 217.156 19.3423 218.215 17.5163C219.297 15.6677 220.785 14.225 222.679 13.188C224.573 12.151 226.692 11.6325 229.036 11.6325C230.795 11.6325 232.418 11.9255 233.906 12.5117C235.393 13.0978 236.656 13.9544 237.693 15.0816L236.104 16.6709C234.255 14.7998 231.922 13.8643 229.104 13.8643C227.233 13.8643 225.531 14.2926 223.998 15.1492C222.465 16.0059 221.259 17.1782 220.379 18.666C219.523 20.1539 219.094 21.8221 219.094 23.6707C219.094 25.5193 219.523 27.1875 220.379 28.6753C221.259 30.1632 222.465 31.3355 223.998 32.1921C225.531 33.0488 227.233 33.4771 229.104 33.4771C231.944 33.4771 234.277 32.5303 236.104 30.6366L237.693 32.2259C236.656 33.3531 235.382 34.221 233.872 34.8297C232.384 35.4158 230.761 35.7089 229.002 35.7089ZM248.998 35.6751C247.285 35.6751 245.74 35.2919 244.365 34.5254C242.99 33.7364 241.908 32.6543 241.119 31.2791C240.33 29.904 239.935 28.3485 239.935 26.6126C239.935 24.8768 240.33 23.3213 241.119 21.9461C241.908 20.571 242.99 19.5001 244.365 18.7337C245.74 17.9672 247.285 17.5839 248.998 17.5839C250.711 17.5839 252.255 17.9672 253.631 18.7337C255.006 19.5001 256.076 20.571 256.843 21.9461C257.632 23.3213 258.027 24.8768 258.027 26.6126C258.027 28.3485 257.632 29.904 256.843 31.2791C256.076 32.6543 255.006 33.7364 253.631 34.5254C252.255 35.2919 250.711 35.6751 248.998 35.6751ZM248.998 33.5447C250.26 33.5447 251.387 33.2629 252.379 32.6994C253.394 32.1132 254.183 31.2904 254.746 30.2308C255.31 29.1713 255.592 27.9652 255.592 26.6126C255.592 25.26 255.31 24.0539 254.746 22.9944C254.183 21.9348 253.394 21.1233 252.379 20.5597C251.387 19.9736 250.26 19.6805 248.998 19.6805C247.735 19.6805 246.597 19.9736 245.582 20.5597C244.591 21.1233 243.802 21.9348 243.215 22.9944C242.652 24.0539 242.37 25.26 242.37 26.6126C242.37 27.9652 242.652 29.1713 243.215 30.2308C243.802 31.2904 244.591 32.1132 245.582 32.6994C246.597 33.2629 247.735 33.5447 248.998 33.5447ZM262.928 17.7192H265.329V35.506H262.928V17.7192ZM264.145 13.8305C263.649 13.8305 263.232 13.6614 262.894 13.3232C262.556 12.9851 262.387 12.5793 262.387 12.1059C262.387 11.655 262.556 11.2605 262.894 10.9223C263.232 10.5842 263.649 10.4151 264.145 10.4151C264.641 10.4151 265.058 10.5842 265.397 10.9223C265.735 11.238 265.904 11.6212 265.904 12.0721C265.904 12.568 265.735 12.9851 265.397 13.3232C265.058 13.6614 264.641 13.8305 264.145 13.8305ZM281.072 17.5839C283.303 17.5839 285.073 18.2377 286.381 19.5452C287.711 20.8302 288.376 22.7126 288.376 25.1924V35.506H285.975V25.4291C285.975 23.5805 285.513 22.1715 284.588 21.2022C283.664 20.2328 282.345 19.7481 280.632 19.7481C278.716 19.7481 277.194 20.323 276.067 21.4727C274.962 22.5999 274.41 24.1666 274.41 26.173V35.506H272.009V17.7192H274.309V20.9993C274.962 19.9172 275.864 19.0831 277.014 18.497C278.186 17.8883 279.539 17.5839 281.072 17.5839ZM299.662 35.6751C298.219 35.6751 296.833 35.4722 295.503 35.0664C294.195 34.6381 293.17 34.1083 292.426 33.4771L293.508 31.5835C294.252 32.1696 295.187 32.6543 296.314 33.0375C297.442 33.3982 298.614 33.5786 299.831 33.5786C301.454 33.5786 302.649 33.3306 303.416 32.8346C304.205 32.3161 304.599 31.5947 304.599 30.6704C304.599 30.0167 304.385 29.5095 303.957 29.1488C303.528 28.7655 302.987 28.4837 302.333 28.3034C301.68 28.1005 300.812 27.9089 299.73 27.7285C298.287 27.458 297.126 27.1875 296.247 26.9169C295.368 26.6239 294.612 26.1392 293.981 25.4629C293.372 24.7866 293.068 23.851 293.068 22.6562C293.068 21.1684 293.688 19.951 294.928 19.0042C296.168 18.0574 297.892 17.5839 300.102 17.5839C301.251 17.5839 302.401 17.7417 303.551 18.0574C304.701 18.3504 305.647 18.7449 306.391 19.2409L305.343 21.1684C303.878 20.1539 302.131 19.6467 300.102 19.6467C298.569 19.6467 297.408 19.9172 296.619 20.4582C295.852 20.9993 295.469 21.7094 295.469 22.5886C295.469 23.2649 295.683 23.8059 296.111 24.2117C296.562 24.6175 297.115 24.9219 297.768 25.1247C298.422 25.3051 299.324 25.4967 300.474 25.6996C301.894 25.9701 303.032 26.2406 303.889 26.5112C304.746 26.7817 305.478 27.2438 306.087 27.8976C306.696 28.5514 307 29.4531 307 30.6028C307 32.1583 306.346 33.3982 305.039 34.3225C303.754 35.2242 301.962 35.6751 299.662 35.6751Z" fill="#08152D"/>
</svg>
