<svg viewBox="0 0 40 47" fill="none" xmlns="http://www.w3.org/2000/svg">
<path d="M36.2398 9.45911L0 30.2858V34.7704L19.9399 46.2142L39.939 34.7282V25.9785L19.9696 37.6335L11.3596 32.5494L39.939 16.0973V11.5872L36.2398 9.45911Z" fill="#08152D"/>
<path d="M0 11.6379L10.3631 5.73462L17.6851 10.0925L6.3598 16.5786L10.6416 20.3035H0V11.6379Z" fill="#08152D"/>
<path d="M14.5518 3.17535L19.9696 0L27.4905 4.42557L21.9842 7.58399L14.5518 3.17535Z" fill="#08152D"/>
</svg>
